%YAML 1.1
%TAG !u! tag:unity3d.com,2011:
--- !u!221 &22100000
AnimatorOverrideController:
  m_ObjectHideFlags: 0
  m_CorrespondingSourceObject: {fileID: 0}
  m_PrefabInstance: {fileID: 0}
  m_PrefabAsset: {fileID: 0}
  m_Name: Neko4
  m_Controller: {fileID: 9100000, guid: 5fda111c914134343b17580a9e501b52, type: 2}
  m_Clips:
  - m_OriginalClip: {fileID: 7400000, guid: 28db5cad68037444abed391af1e0bdc2, type: 2}
    m_OverrideClip: {fileID: 7400000, guid: e80aaff59b8dfa242aab2e7539bfd550, type: 2}
  - m_OriginalClip: {fileID: 7400000, guid: 19195a464ab51f245ab8897b7974bc99, type: 2}
    m_OverrideClip: {fileID: 7400000, guid: 06ab3fbffb620af4594bd8d3ac75bc69, type: 2}
  - m_OriginalClip: {fileID: 7400000, guid: 2432a6d59e260394099f1a1e0cab30bc, type: 2}
    m_OverrideClip: {fileID: 7400000, guid: d55f8db03593dca4a81048a1a8c94ffc, type: 2}
  - m_OriginalClip: {fileID: 7400000, guid: b2d02a2d690b8d7488fc498660d2e324, type: 2}
    m_OverrideClip: {fileID: 7400000, guid: 1aa126924e7a88649b1dcfba6447d595, type: 2}
