%YAML 1.1
%TAG !u! tag:unity3d.com,2011:
--- !u!74 &7400000
AnimationClip:
  m_ObjectHideFlags: 0
  m_CorrespondingSourceObject: {fileID: 0}
  m_PrefabInstance: {fileID: 0}
  m_PrefabAsset: {fileID: 0}
  m_Name: MonterBalais
  serializedVersion: 6
  m_Legacy: 0
  m_Compressed: 0
  m_UseHighQualityCurve: 1
  m_RotationCurves: []
  m_CompressedRotationCurves: []
  m_EulerCurves: []
  m_PositionCurves: []
  m_ScaleCurves: []
  m_FloatCurves: []
  m_PPtrCurves:
  - curve:
    - time: 0
      value: {fileID: 21300000, guid: 0265a93acb58ce041a46dfe864c0dce4, type: 3}
    - time: 0.125
      value: {fileID: 21300000, guid: ed2f767c7cd80204394fc281dceba639, type: 3}
    - time: 0.25
      value: {fileID: 21300000, guid: febfa0adb97360e498363e2d94e2c78e, type: 3}
    - time: 0.375
      value: {fileID: 21300000, guid: aa3ad37f0c8750b4f85062e6d192036e, type: 3}
    - time: 0.5
      value: {fileID: 21300000, guid: bc08ff2696347a845bf8af9507601433, type: 3}
    - time: 0.625
      value: {fileID: 21300000, guid: 1c76a7fff57b8b048ab3733b85bd3d35, type: 3}
    - time: 0.75
      value: {fileID: 21300000, guid: a2a3cb03c73ca6f4097a9ecaf1ef3cc5, type: 3}
    attribute: m_Sprite
    path: 
    classID: 212
    script: {fileID: 0}
  m_SampleRate: 8
  m_WrapMode: 0
  m_Bounds:
    m_Center: {x: 0, y: 0, z: 0}
    m_Extent: {x: 0, y: 0, z: 0}
  m_ClipBindingConstant:
    genericBindings:
    - serializedVersion: 2
      path: 0
      attribute: 0
      script: {fileID: 0}
      typeID: 212
      customType: 23
      isPPtrCurve: 1
    pptrCurveMapping:
    - {fileID: 21300000, guid: 0265a93acb58ce041a46dfe864c0dce4, type: 3}
    - {fileID: 21300000, guid: ed2f767c7cd80204394fc281dceba639, type: 3}
    - {fileID: 21300000, guid: febfa0adb97360e498363e2d94e2c78e, type: 3}
    - {fileID: 21300000, guid: aa3ad37f0c8750b4f85062e6d192036e, type: 3}
    - {fileID: 21300000, guid: bc08ff2696347a845bf8af9507601433, type: 3}
    - {fileID: 21300000, guid: 1c76a7fff57b8b048ab3733b85bd3d35, type: 3}
    - {fileID: 21300000, guid: a2a3cb03c73ca6f4097a9ecaf1ef3cc5, type: 3}
  m_AnimationClipSettings:
    serializedVersion: 2
    m_AdditiveReferencePoseClip: {fileID: 0}
    m_AdditiveReferencePoseTime: 0
    m_StartTime: 0
    m_StopTime: 0.875
    m_OrientationOffsetY: 0
    m_Level: 0
    m_CycleOffset: 0
    m_HasAdditiveReferencePose: 0
    m_LoopTime: 1
    m_LoopBlend: 0
    m_LoopBlendOrientation: 0
    m_LoopBlendPositionY: 0
    m_LoopBlendPositionXZ: 0
    m_KeepOriginalOrientation: 0
    m_KeepOriginalPositionY: 1
    m_KeepOriginalPositionXZ: 0
    m_HeightFromFeet: 0
    m_Mirror: 0
  m_EditorCurves: []
  m_EulerEditorCurves: []
  m_HasGenericRootTransform: 0
  m_HasMotionFloatCurves: 0
  m_Events: []
